-- Merging decision tree log ---
manifest
ADDED from /home/akhil/AndroidStudioProjects/ARanyway-master/src/main/AndroidManifest.xml:2:1-41:12
INJECTED from /home/akhil/AndroidStudioProjects/ARanyway-master/src/main/AndroidManifest.xml:2:1-41:12
INJECTED from /home/akhil/AndroidStudioProjects/ARanyway-master/src/main/AndroidManifest.xml:2:1-41:12
INJECTED from /home/akhil/AndroidStudioProjects/ARanyway-master/src/main/AndroidManifest.xml:2:1-41:12
MERGED from [com.facebook.flipper:flipper:0.48.0] /home/akhil/.gradle/caches/transforms-2/files-2.1/033ac26c4d863fba2847934f393d4642/AndroidManifest.xml:8:1-18:12
MERGED from [com.facebook.soloader:soloader:0.9.0] /home/akhil/.gradle/caches/transforms-2/files-2.1/1d682da3181b35835000551b1bdfc686/AndroidManifest.xml:2:1-13:12
MERGED from [:arcore_client:] /home/akhil/.gradle/caches/transforms-2/files-2.1/a4e9d2545e17a6536a45e4871d851c29/AndroidManifest.xml:17:1-46:12
MERGED from [:arcore_rendering_utils:] /home/akhil/.gradle/caches/transforms-2/files-2.1/f0f6f71ef3042a7494ada6641770227c/AndroidManifest.xml:2:1-11:12
MERGED from [:arcore_unity:] /home/akhil/.gradle/caches/transforms-2/files-2.1/726121dcbb27068b7b33d1c369b8dce3/AndroidManifest.xml:2:1-11:12
MERGED from [:google_ar_required:] /home/akhil/.gradle/caches/transforms-2/files-2.1/35770158665ee27dfb562011755d95fb/AndroidManifest.xml:2:1-19:12
MERGED from [:unityandroidpermissions:] /home/akhil/.gradle/caches/transforms-2/files-2.1/565add13d4743ec93be17be0c146749b/AndroidManifest.xml:6:1-15:12
MERGED from [:unitygar:] /home/akhil/.gradle/caches/transforms-2/files-2.1/8f569e56040d11b1b6cbcf0315480adb/AndroidManifest.xml:2:1-11:12
MERGED from [com.google.android.material:material:1.1.0] /home/akhil/.gradle/caches/transforms-2/files-2.1/69aa10f3a784c6872c09c37d7d5c4458/AndroidManifest.xml:17:1-24:12
MERGED from [androidx.appcompat:appcompat:1.1.0] /home/akhil/.gradle/caches/transforms-2/files-2.1/59fae07be477418e79a15c1f25c72b90/AndroidManifest.xml:17:1-24:12
MERGED from [pl.droidsonroids.gif:android-gif-drawable:1.2.19] /home/akhil/.gradle/caches/transforms-2/files-2.1/342773f24d6663b1fe11f06a14f5c7f7/AndroidManifest.xml:2:1-9:12
MERGED from [androidx.constraintlayout:constraintlayout:1.1.3] /home/akhil/.gradle/caches/transforms-2/files-2.1/ed714a9f6a0250326a11d73262a60a4f/AndroidManifest.xml:2:1-11:12
MERGED from [androidx.viewpager2:viewpager2:1.0.0] /home/akhil/.gradle/caches/transforms-2/files-2.1/fec5ffdbd6a4ba27ecbb9d55798cef68/AndroidManifest.xml:17:1-24:12
MERGED from [androidx.recyclerview:recyclerview:1.1.0] /home/akhil/.gradle/caches/transforms-2/files-2.1/6e5d54258ba1dca46cd865753b5cfcfa/AndroidManifest.xml:17:1-24:12
MERGED from [com.facebook.fbjni:fbjni:0.0.2] /home/akhil/.gradle/caches/transforms-2/files-2.1/e09c49260ca09a136e0e21b7c250c27c/AndroidManifest.xml:2:1-9:12
MERGED from [androidx.fragment:fragment:1.1.0] /home/akhil/.gradle/caches/transforms-2/files-2.1/d0458bd4bbc3b4a4343a6703a2f48567/AndroidManifest.xml:17:1-24:12
MERGED from [androidx.appcompat:appcompat-resources:1.1.0] /home/akhil/.gradle/caches/transforms-2/files-2.1/28ea2af70cbd26f7bd8acff636c2c94a/AndroidManifest.xml:17:1-24:12
MERGED from [androidx.drawerlayout:drawerlayout:1.0.0] /home/akhil/.gradle/caches/transforms-2/files-2.1/a6bf2e305f33d321c5d593b58a4e8b59/AndroidManifest.xml:17:1-22:12
MERGED from [androidx.coordinatorlayout:coordinatorlayout:1.1.0] /home/akhil/.gradle/caches/transforms-2/files-2.1/534c8cedd147bd776e9c8bacb03c431c/AndroidManifest.xml:17:1-24:12
MERGED from [androidx.transition:transition:1.2.0] /home/akhil/.gradle/caches/transforms-2/files-2.1/88a8e6b203ff6f2b24f1d22ce8b12a9c/AndroidManifest.xml:17:1-24:12
MERGED from [androidx.vectordrawable:vectordrawable-animated:1.1.0] /home/akhil/.gradle/caches/transforms-2/files-2.1/713bc3cba35e92bb0e13a286c8a2543d/AndroidManifest.xml:17:1-24:12
MERGED from [androidx.vectordrawable:vectordrawable:1.1.0] /home/akhil/.gradle/caches/transforms-2/files-2.1/4bf851f756149e23901930abbda526c6/AndroidManifest.xml:17:1-24:12
MERGED from [androidx.viewpager:viewpager:1.0.0] /home/akhil/.gradle/caches/transforms-2/files-2.1/2f900257992c5b969e2757a01b3b6229/AndroidManifest.xml:17:1-22:12
MERGED from [androidx.customview:customview:1.0.0] /home/akhil/.gradle/caches/transforms-2/files-2.1/9306893e34c13054fd1c0fd2b18fa67a/AndroidManifest.xml:17:1-22:12
MERGED from [androidx.loader:loader:1.0.0] /home/akhil/.gradle/caches/transforms-2/files-2.1/e03bbc90c8978a4d9ada49cff6a57fd5/AndroidManifest.xml:17:1-22:12
MERGED from [androidx.activity:activity:1.0.0] /home/akhil/.gradle/caches/transforms-2/files-2.1/e5422bd5074bab449bdd5a41dac85449/AndroidManifest.xml:17:1-24:12
MERGED from [androidx.core:core:1.1.0] /home/akhil/.gradle/caches/transforms-2/files-2.1/5e4f5130a13b7ce1f46b2dbc280a2535/AndroidManifest.xml:17:1-26:12
MERGED from [androidx.cursoradapter:cursoradapter:1.0.0] /home/akhil/.gradle/caches/transforms-2/files-2.1/2175dd6bb88dd1b5c88d243e1790621a/AndroidManifest.xml:17:1-22:12
MERGED from [androidx.cardview:cardview:1.0.0] /home/akhil/.gradle/caches/transforms-2/files-2.1/2d1fd19999f9e3d7c62fb4b846537269/AndroidManifest.xml:17:1-22:12
MERGED from [androidx.versionedparcelable:versionedparcelable:1.1.0] /home/akhil/.gradle/caches/transforms-2/files-2.1/dea0fb8d8569f1253210821076ad45f3/AndroidManifest.xml:17:1-27:12
MERGED from [androidx.lifecycle:lifecycle-runtime:2.1.0] /home/akhil/.gradle/caches/transforms-2/files-2.1/1812f3223a8bd16d966310734606fa98/AndroidManifest.xml:17:1-22:12
MERGED from [androidx.lifecycle:lifecycle-viewmodel:2.1.0] /home/akhil/.gradle/caches/transforms-2/files-2.1/150dfd4b0e085d26f57516d6b8d22cc6/AndroidManifest.xml:17:1-22:12
MERGED from [androidx.savedstate:savedstate:1.0.0] /home/akhil/.gradle/caches/transforms-2/files-2.1/1b879d2b24cb2b175c4d8768dc4a6213/AndroidManifest.xml:17:1-24:12
MERGED from [androidx.interpolator:interpolator:1.0.0] /home/akhil/.gradle/caches/transforms-2/files-2.1/0dbb074f899efe0ccdba18e84a25148e/AndroidManifest.xml:17:1-22:12
MERGED from [androidx.lifecycle:lifecycle-livedata:2.0.0] /home/akhil/.gradle/caches/transforms-2/files-2.1/a80824933616705ca064b0df3cd8f9ef/AndroidManifest.xml:17:1-22:12
MERGED from [androidx.lifecycle:lifecycle-livedata-core:2.0.0] /home/akhil/.gradle/caches/transforms-2/files-2.1/db7401ce8becd3bdfee9310864eade00/AndroidManifest.xml:17:1-22:12
MERGED from [androidx.arch.core:core-runtime:2.0.0] /home/akhil/.gradle/caches/transforms-2/files-2.1/52ccc2800f8f581f50527be7b590acd6/AndroidManifest.xml:17:1-22:12
MERGED from [pl.droidsonroids:relinker:1.3.1] /home/akhil/.gradle/caches/transforms-2/files-2.1/af45ffd13078da55dd23e04435792a1a/AndroidManifest.xml:2:1-7:12
INJECTED from /home/akhil/AndroidStudioProjects/ARanyway-master/src/main/AndroidManifest.xml:2:1-41:12
INJECTED from /home/akhil/AndroidStudioProjects/ARanyway-master/src/main/AndroidManifest.xml:2:1-41:12
INJECTED from /home/akhil/AndroidStudioProjects/ARanyway-master/src/main/AndroidManifest.xml:2:1-41:12
	package
		ADDED from /home/akhil/AndroidStudioProjects/ARanyway-master/src/main/AndroidManifest.xml:2:70-100
		INJECTED from /home/akhil/AndroidStudioProjects/ARanyway-master/src/main/AndroidManifest.xml
		INJECTED from /home/akhil/AndroidStudioProjects/ARanyway-master/src/main/AndroidManifest.xml
	android:versionName
		INJECTED from /home/akhil/AndroidStudioProjects/ARanyway-master/src/main/AndroidManifest.xml
		ADDED from /home/akhil/AndroidStudioProjects/ARanyway-master/src/main/AndroidManifest.xml:2:1-41:12
		INJECTED from /home/akhil/AndroidStudioProjects/ARanyway-master/src/main/AndroidManifest.xml
	xmlns:tools
		ADDED from /home/akhil/AndroidStudioProjects/ARanyway-master/src/main/AndroidManifest.xml:2:101-147
	android:versionCode
		INJECTED from /home/akhil/AndroidStudioProjects/ARanyway-master/src/main/AndroidManifest.xml
		ADDED from /home/akhil/AndroidStudioProjects/ARanyway-master/src/main/AndroidManifest.xml:2:1-41:12
		INJECTED from /home/akhil/AndroidStudioProjects/ARanyway-master/src/main/AndroidManifest.xml
	xmlns:android
		ADDED from /home/akhil/AndroidStudioProjects/ARanyway-master/src/main/AndroidManifest.xml:2:11-69
	android:installLocation
		ADDED from /home/akhil/AndroidStudioProjects/ARanyway-master/src/main/AndroidManifest.xml:2:148-188
supports-screens
ADDED from /home/akhil/AndroidStudioProjects/ARanyway-master/src/main/AndroidManifest.xml:3:3-163
	android:largeScreens
		ADDED from /home/akhil/AndroidStudioProjects/ARanyway-master/src/main/AndroidManifest.xml:3:78-105
	android:smallScreens
		ADDED from /home/akhil/AndroidStudioProjects/ARanyway-master/src/main/AndroidManifest.xml:3:21-48
	android:normalScreens
		ADDED from /home/akhil/AndroidStudioProjects/ARanyway-master/src/main/AndroidManifest.xml:3:49-77
	android:xlargeScreens
		ADDED from /home/akhil/AndroidStudioProjects/ARanyway-master/src/main/AndroidManifest.xml:3:106-134
	android:anyDensity
		ADDED from /home/akhil/AndroidStudioProjects/ARanyway-master/src/main/AndroidManifest.xml:3:135-160
uses-feature#android.hardware.camera.ar
ADDED from /home/akhil/AndroidStudioProjects/ARanyway-master/src/main/AndroidManifest.xml:4:3-6:33
MERGED from [:google_ar_required:] /home/akhil/.gradle/caches/transforms-2/files-2.1/35770158665ee27dfb562011755d95fb/AndroidManifest.xml:9:5-11:35
MERGED from [:google_ar_required:] /home/akhil/.gradle/caches/transforms-2/files-2.1/35770158665ee27dfb562011755d95fb/AndroidManifest.xml:9:5-11:35
	android:required
		ADDED from /home/akhil/AndroidStudioProjects/ARanyway-master/src/main/AndroidManifest.xml:6:7-30
	android:name
		ADDED from /home/akhil/AndroidStudioProjects/ARanyway-master/src/main/AndroidManifest.xml:5:7-48
application
ADDED from /home/akhil/AndroidStudioProjects/ARanyway-master/src/main/AndroidManifest.xml:8:3-32:17
MERGED from [com.facebook.soloader:soloader:0.9.0] /home/akhil/.gradle/caches/transforms-2/files-2.1/1d682da3181b35835000551b1bdfc686/AndroidManifest.xml:11:5-20
MERGED from [com.facebook.soloader:soloader:0.9.0] /home/akhil/.gradle/caches/transforms-2/files-2.1/1d682da3181b35835000551b1bdfc686/AndroidManifest.xml:11:5-20
MERGED from [:arcore_client:] /home/akhil/.gradle/caches/transforms-2/files-2.1/a4e9d2545e17a6536a45e4871d851c29/AndroidManifest.xml:30:5-44:19
MERGED from [:arcore_client:] /home/akhil/.gradle/caches/transforms-2/files-2.1/a4e9d2545e17a6536a45e4871d851c29/AndroidManifest.xml:30:5-44:19
MERGED from [:google_ar_required:] /home/akhil/.gradle/caches/transforms-2/files-2.1/35770158665ee27dfb562011755d95fb/AndroidManifest.xml:13:5-17:19
MERGED from [:google_ar_required:] /home/akhil/.gradle/caches/transforms-2/files-2.1/35770158665ee27dfb562011755d95fb/AndroidManifest.xml:13:5-17:19
MERGED from [com.google.android.material:material:1.1.0] /home/akhil/.gradle/caches/transforms-2/files-2.1/69aa10f3a784c6872c09c37d7d5c4458/AndroidManifest.xml:22:5-20
MERGED from [com.google.android.material:material:1.1.0] /home/akhil/.gradle/caches/transforms-2/files-2.1/69aa10f3a784c6872c09c37d7d5c4458/AndroidManifest.xml:22:5-20
MERGED from [androidx.constraintlayout:constraintlayout:1.1.3] /home/akhil/.gradle/caches/transforms-2/files-2.1/ed714a9f6a0250326a11d73262a60a4f/AndroidManifest.xml:9:5-20
MERGED from [androidx.constraintlayout:constraintlayout:1.1.3] /home/akhil/.gradle/caches/transforms-2/files-2.1/ed714a9f6a0250326a11d73262a60a4f/AndroidManifest.xml:9:5-20
MERGED from [androidx.core:core:1.1.0] /home/akhil/.gradle/caches/transforms-2/files-2.1/5e4f5130a13b7ce1f46b2dbc280a2535/AndroidManifest.xml:24:5-89
MERGED from [androidx.core:core:1.1.0] /home/akhil/.gradle/caches/transforms-2/files-2.1/5e4f5130a13b7ce1f46b2dbc280a2535/AndroidManifest.xml:24:5-89
MERGED from [androidx.versionedparcelable:versionedparcelable:1.1.0] /home/akhil/.gradle/caches/transforms-2/files-2.1/dea0fb8d8569f1253210821076ad45f3/AndroidManifest.xml:24:5-25:19
MERGED from [androidx.versionedparcelable:versionedparcelable:1.1.0] /home/akhil/.gradle/caches/transforms-2/files-2.1/dea0fb8d8569f1253210821076ad45f3/AndroidManifest.xml:24:5-25:19
	android:appComponentFactory
		ADDED from [androidx.core:core:1.1.0] /home/akhil/.gradle/caches/transforms-2/files-2.1/5e4f5130a13b7ce1f46b2dbc280a2535/AndroidManifest.xml:24:18-86
	android:label
		ADDED from /home/akhil/AndroidStudioProjects/ARanyway-master/src/main/AndroidManifest.xml:8:90-122
	android:icon
		ADDED from /home/akhil/AndroidStudioProjects/ARanyway-master/src/main/AndroidManifest.xml:8:58-89
	android:theme
		ADDED from /home/akhil/AndroidStudioProjects/ARanyway-master/src/main/AndroidManifest.xml:8:16-57
activity#com.Company.ARanyway.UnityPlayerActivity
ADDED from /home/akhil/AndroidStudioProjects/ARanyway-master/src/main/AndroidManifest.xml:9:5-12:16
	android:screenOrientation
		ADDED from /home/akhil/AndroidStudioProjects/ARanyway-master/src/main/AndroidManifest.xml:9:48-86
	android:label
		ADDED from /home/akhil/AndroidStudioProjects/ARanyway-master/src/main/AndroidManifest.xml:9:15-47
	android:launchMode
		ADDED from /home/akhil/AndroidStudioProjects/ARanyway-master/src/main/AndroidManifest.xml:9:87-118
	android:hardwareAccelerated
		ADDED from /home/akhil/AndroidStudioProjects/ARanyway-master/src/main/AndroidManifest.xml:9:301-336
	android:configChanges
		ADDED from /home/akhil/AndroidStudioProjects/ARanyway-master/src/main/AndroidManifest.xml:9:119-300
	android:name
		ADDED from /home/akhil/AndroidStudioProjects/ARanyway-master/src/main/AndroidManifest.xml:9:337-392
meta-data#unityplayer.UnityActivity
ADDED from /home/akhil/AndroidStudioProjects/ARanyway-master/src/main/AndroidManifest.xml:11:7-82
	android:value
		ADDED from /home/akhil/AndroidStudioProjects/ARanyway-master/src/main/AndroidManifest.xml:11:59-79
	android:name
		ADDED from /home/akhil/AndroidStudioProjects/ARanyway-master/src/main/AndroidManifest.xml:11:18-58
activity#com.Company.ARanyway.MainActivity
ADDED from /home/akhil/AndroidStudioProjects/ARanyway-master/src/main/AndroidManifest.xml:13:5-15:16
	android:theme
		ADDED from /home/akhil/AndroidStudioProjects/ARanyway-master/src/main/AndroidManifest.xml:13:44-102
	android:name
		ADDED from /home/akhil/AndroidStudioProjects/ARanyway-master/src/main/AndroidManifest.xml:13:15-43
activity#com.Company.ARanyway.Carousal
ADDED from /home/akhil/AndroidStudioProjects/ARanyway-master/src/main/AndroidManifest.xml:16:5-18:16
	android:theme
		ADDED from /home/akhil/AndroidStudioProjects/ARanyway-master/src/main/AndroidManifest.xml:16:40-84
	android:name
		ADDED from /home/akhil/AndroidStudioProjects/ARanyway-master/src/main/AndroidManifest.xml:16:15-39
activity#com.Company.ARanyway.SplashScreen
ADDED from /home/akhil/AndroidStudioProjects/ARanyway-master/src/main/AndroidManifest.xml:19:7-24:16
	android:theme
		ADDED from /home/akhil/AndroidStudioProjects/ARanyway-master/src/main/AndroidManifest.xml:19:46-90
	android:name
		ADDED from /home/akhil/AndroidStudioProjects/ARanyway-master/src/main/AndroidManifest.xml:19:17-45
intent-filter#action:name:android.intent.action.MAIN+category:name:android.intent.category.LAUNCHER
ADDED from /home/akhil/AndroidStudioProjects/ARanyway-master/src/main/AndroidManifest.xml:20:7-23:23
action#android.intent.action.MAIN
ADDED from /home/akhil/AndroidStudioProjects/ARanyway-master/src/main/AndroidManifest.xml:21:9-61
	android:name
		ADDED from /home/akhil/AndroidStudioProjects/ARanyway-master/src/main/AndroidManifest.xml:21:17-58
category#android.intent.category.LAUNCHER
ADDED from /home/akhil/AndroidStudioProjects/ARanyway-master/src/main/AndroidManifest.xml:22:9-69
	android:name
		ADDED from /home/akhil/AndroidStudioProjects/ARanyway-master/src/main/AndroidManifest.xml:22:19-66
meta-data#unity.tango-enable
ADDED from /home/akhil/AndroidStudioProjects/ARanyway-master/src/main/AndroidManifest.xml:26:5-73
	android:value
		ADDED from /home/akhil/AndroidStudioProjects/ARanyway-master/src/main/AndroidManifest.xml:26:50-70
	android:name
		ADDED from /home/akhil/AndroidStudioProjects/ARanyway-master/src/main/AndroidManifest.xml:26:16-49
meta-data#unityplayer.SkipPermissionsDialog
ADDED from /home/akhil/AndroidStudioProjects/ARanyway-master/src/main/AndroidManifest.xml:27:5-88
	android:value
		ADDED from /home/akhil/AndroidStudioProjects/ARanyway-master/src/main/AndroidManifest.xml:27:65-85
	android:name
		ADDED from /home/akhil/AndroidStudioProjects/ARanyway-master/src/main/AndroidManifest.xml:27:16-64
meta-data#unity.build-id
ADDED from /home/akhil/AndroidStudioProjects/ARanyway-master/src/main/AndroidManifest.xml:28:5-101
	android:value
		ADDED from /home/akhil/AndroidStudioProjects/ARanyway-master/src/main/AndroidManifest.xml:28:46-98
	android:name
		ADDED from /home/akhil/AndroidStudioProjects/ARanyway-master/src/main/AndroidManifest.xml:28:16-45
meta-data#unity.splash-mode
ADDED from /home/akhil/AndroidStudioProjects/ARanyway-master/src/main/AndroidManifest.xml:29:5-69
	android:value
		ADDED from /home/akhil/AndroidStudioProjects/ARanyway-master/src/main/AndroidManifest.xml:29:49-66
	android:name
		ADDED from /home/akhil/AndroidStudioProjects/ARanyway-master/src/main/AndroidManifest.xml:29:16-48
meta-data#unity.splash-enable
ADDED from /home/akhil/AndroidStudioProjects/ARanyway-master/src/main/AndroidManifest.xml:30:5-74
	android:value
		ADDED from /home/akhil/AndroidStudioProjects/ARanyway-master/src/main/AndroidManifest.xml:30:51-71
	android:name
		ADDED from /home/akhil/AndroidStudioProjects/ARanyway-master/src/main/AndroidManifest.xml:30:16-50
uses-feature#0x00020000
ADDED from /home/akhil/AndroidStudioProjects/ARanyway-master/src/main/AndroidManifest.xml:33:3-52
	android:glEsVersion
		ADDED from /home/akhil/AndroidStudioProjects/ARanyway-master/src/main/AndroidManifest.xml:33:17-49
uses-permission#android.permission.CAMERA
ADDED from /home/akhil/AndroidStudioProjects/ARanyway-master/src/main/AndroidManifest.xml:34:3-63
	android:name
		ADDED from /home/akhil/AndroidStudioProjects/ARanyway-master/src/main/AndroidManifest.xml:34:20-60
uses-permission#android.permission.INTERNET
ADDED from /home/akhil/AndroidStudioProjects/ARanyway-master/src/main/AndroidManifest.xml:35:3-65
MERGED from [com.facebook.flipper:flipper:0.48.0] /home/akhil/.gradle/caches/transforms-2/files-2.1/033ac26c4d863fba2847934f393d4642/AndroidManifest.xml:15:5-67
MERGED from [com.facebook.flipper:flipper:0.48.0] /home/akhil/.gradle/caches/transforms-2/files-2.1/033ac26c4d863fba2847934f393d4642/AndroidManifest.xml:15:5-67
	android:name
		ADDED from /home/akhil/AndroidStudioProjects/ARanyway-master/src/main/AndroidManifest.xml:35:20-62
uses-permission#android.permission.WRITE_EXTERNAL_STORAGE
ADDED from /home/akhil/AndroidStudioProjects/ARanyway-master/src/main/AndroidManifest.xml:36:3-106
	android:maxSdkVersion
		ADDED from /home/akhil/AndroidStudioProjects/ARanyway-master/src/main/AndroidManifest.xml:36:77-103
	android:name
		ADDED from /home/akhil/AndroidStudioProjects/ARanyway-master/src/main/AndroidManifest.xml:36:20-76
uses-permission#android.permission.READ_EXTERNAL_STORAGE
ADDED from /home/akhil/AndroidStudioProjects/ARanyway-master/src/main/AndroidManifest.xml:37:3-105
	android:maxSdkVersion
		ADDED from /home/akhil/AndroidStudioProjects/ARanyway-master/src/main/AndroidManifest.xml:37:76-102
	android:name
		ADDED from /home/akhil/AndroidStudioProjects/ARanyway-master/src/main/AndroidManifest.xml:37:20-75
uses-feature#android.hardware.touchscreen
ADDED from /home/akhil/AndroidStudioProjects/ARanyway-master/src/main/AndroidManifest.xml:38:3-88
	android:required
		ADDED from /home/akhil/AndroidStudioProjects/ARanyway-master/src/main/AndroidManifest.xml:38:61-85
	android:name
		ADDED from /home/akhil/AndroidStudioProjects/ARanyway-master/src/main/AndroidManifest.xml:38:17-60
uses-feature#android.hardware.touchscreen.multitouch
ADDED from /home/akhil/AndroidStudioProjects/ARanyway-master/src/main/AndroidManifest.xml:39:3-99
	android:required
		ADDED from /home/akhil/AndroidStudioProjects/ARanyway-master/src/main/AndroidManifest.xml:39:72-96
	android:name
		ADDED from /home/akhil/AndroidStudioProjects/ARanyway-master/src/main/AndroidManifest.xml:39:17-71
uses-feature#android.hardware.touchscreen.multitouch.distinct
ADDED from /home/akhil/AndroidStudioProjects/ARanyway-master/src/main/AndroidManifest.xml:40:3-108
	android:required
		ADDED from /home/akhil/AndroidStudioProjects/ARanyway-master/src/main/AndroidManifest.xml:40:81-105
	android:name
		ADDED from /home/akhil/AndroidStudioProjects/ARanyway-master/src/main/AndroidManifest.xml:40:17-80
uses-sdk
INJECTED from /home/akhil/AndroidStudioProjects/ARanyway-master/src/main/AndroidManifest.xml reason: use-sdk injection requested
INJECTED from /home/akhil/AndroidStudioProjects/ARanyway-master/src/main/AndroidManifest.xml
INJECTED from /home/akhil/AndroidStudioProjects/ARanyway-master/src/main/AndroidManifest.xml
MERGED from [com.facebook.flipper:flipper:0.48.0] /home/akhil/.gradle/caches/transforms-2/files-2.1/033ac26c4d863fba2847934f393d4642/AndroidManifest.xml:11:5-13:41
MERGED from [com.facebook.flipper:flipper:0.48.0] /home/akhil/.gradle/caches/transforms-2/files-2.1/033ac26c4d863fba2847934f393d4642/AndroidManifest.xml:11:5-13:41
MERGED from [com.facebook.soloader:soloader:0.9.0] /home/akhil/.gradle/caches/transforms-2/files-2.1/1d682da3181b35835000551b1bdfc686/AndroidManifest.xml:7:5-9:41
MERGED from [com.facebook.soloader:soloader:0.9.0] /home/akhil/.gradle/caches/transforms-2/files-2.1/1d682da3181b35835000551b1bdfc686/AndroidManifest.xml:7:5-9:41
MERGED from [:arcore_client:] /home/akhil/.gradle/caches/transforms-2/files-2.1/a4e9d2545e17a6536a45e4871d851c29/AndroidManifest.xml:26:5-28:41
MERGED from [:arcore_client:] /home/akhil/.gradle/caches/transforms-2/files-2.1/a4e9d2545e17a6536a45e4871d851c29/AndroidManifest.xml:26:5-28:41
MERGED from [:arcore_rendering_utils:] /home/akhil/.gradle/caches/transforms-2/files-2.1/f0f6f71ef3042a7494ada6641770227c/AndroidManifest.xml:7:5-9:41
MERGED from [:arcore_rendering_utils:] /home/akhil/.gradle/caches/transforms-2/files-2.1/f0f6f71ef3042a7494ada6641770227c/AndroidManifest.xml:7:5-9:41
MERGED from [:arcore_unity:] /home/akhil/.gradle/caches/transforms-2/files-2.1/726121dcbb27068b7b33d1c369b8dce3/AndroidManifest.xml:7:5-9:41
MERGED from [:arcore_unity:] /home/akhil/.gradle/caches/transforms-2/files-2.1/726121dcbb27068b7b33d1c369b8dce3/AndroidManifest.xml:7:5-9:41
MERGED from [:google_ar_required:] /home/akhil/.gradle/caches/transforms-2/files-2.1/35770158665ee27dfb562011755d95fb/AndroidManifest.xml:7:5-44
MERGED from [:google_ar_required:] /home/akhil/.gradle/caches/transforms-2/files-2.1/35770158665ee27dfb562011755d95fb/AndroidManifest.xml:7:5-44
MERGED from [:unityandroidpermissions:] /home/akhil/.gradle/caches/transforms-2/files-2.1/565add13d4743ec93be17be0c146749b/AndroidManifest.xml:11:5-13:41
MERGED from [:unityandroidpermissions:] /home/akhil/.gradle/caches/transforms-2/files-2.1/565add13d4743ec93be17be0c146749b/AndroidManifest.xml:11:5-13:41
MERGED from [:unitygar:] /home/akhil/.gradle/caches/transforms-2/files-2.1/8f569e56040d11b1b6cbcf0315480adb/AndroidManifest.xml:7:5-9:41
MERGED from [:unitygar:] /home/akhil/.gradle/caches/transforms-2/files-2.1/8f569e56040d11b1b6cbcf0315480adb/AndroidManifest.xml:7:5-9:41
MERGED from [com.google.android.material:material:1.1.0] /home/akhil/.gradle/caches/transforms-2/files-2.1/69aa10f3a784c6872c09c37d7d5c4458/AndroidManifest.xml:20:5-44
MERGED from [com.google.android.material:material:1.1.0] /home/akhil/.gradle/caches/transforms-2/files-2.1/69aa10f3a784c6872c09c37d7d5c4458/AndroidManifest.xml:20:5-44
MERGED from [androidx.appcompat:appcompat:1.1.0] /home/akhil/.gradle/caches/transforms-2/files-2.1/59fae07be477418e79a15c1f25c72b90/AndroidManifest.xml:20:5-22:41
MERGED from [androidx.appcompat:appcompat:1.1.0] /home/akhil/.gradle/caches/transforms-2/files-2.1/59fae07be477418e79a15c1f25c72b90/AndroidManifest.xml:20:5-22:41
MERGED from [pl.droidsonroids.gif:android-gif-drawable:1.2.19] /home/akhil/.gradle/caches/transforms-2/files-2.1/342773f24d6663b1fe11f06a14f5c7f7/AndroidManifest.xml:5:5-7:41
MERGED from [pl.droidsonroids.gif:android-gif-drawable:1.2.19] /home/akhil/.gradle/caches/transforms-2/files-2.1/342773f24d6663b1fe11f06a14f5c7f7/AndroidManifest.xml:5:5-7:41
MERGED from [androidx.constraintlayout:constraintlayout:1.1.3] /home/akhil/.gradle/caches/transforms-2/files-2.1/ed714a9f6a0250326a11d73262a60a4f/AndroidManifest.xml:5:5-7:41
MERGED from [androidx.constraintlayout:constraintlayout:1.1.3] /home/akhil/.gradle/caches/transforms-2/files-2.1/ed714a9f6a0250326a11d73262a60a4f/AndroidManifest.xml:5:5-7:41
MERGED from [androidx.viewpager2:viewpager2:1.0.0] /home/akhil/.gradle/caches/transforms-2/files-2.1/fec5ffdbd6a4ba27ecbb9d55798cef68/AndroidManifest.xml:20:5-22:41
MERGED from [androidx.viewpager2:viewpager2:1.0.0] /home/akhil/.gradle/caches/transforms-2/files-2.1/fec5ffdbd6a4ba27ecbb9d55798cef68/AndroidManifest.xml:20:5-22:41
MERGED from [androidx.recyclerview:recyclerview:1.1.0] /home/akhil/.gradle/caches/transforms-2/files-2.1/6e5d54258ba1dca46cd865753b5cfcfa/AndroidManifest.xml:20:5-22:41
MERGED from [androidx.recyclerview:recyclerview:1.1.0] /home/akhil/.gradle/caches/transforms-2/files-2.1/6e5d54258ba1dca46cd865753b5cfcfa/AndroidManifest.xml:20:5-22:41
MERGED from [com.facebook.fbjni:fbjni:0.0.2] /home/akhil/.gradle/caches/transforms-2/files-2.1/e09c49260ca09a136e0e21b7c250c27c/AndroidManifest.xml:5:5-7:41
MERGED from [com.facebook.fbjni:fbjni:0.0.2] /home/akhil/.gradle/caches/transforms-2/files-2.1/e09c49260ca09a136e0e21b7c250c27c/AndroidManifest.xml:5:5-7:41
MERGED from [androidx.fragment:fragment:1.1.0] /home/akhil/.gradle/caches/transforms-2/files-2.1/d0458bd4bbc3b4a4343a6703a2f48567/AndroidManifest.xml:20:5-22:41
MERGED from [androidx.fragment:fragment:1.1.0] /home/akhil/.gradle/caches/transforms-2/files-2.1/d0458bd4bbc3b4a4343a6703a2f48567/AndroidManifest.xml:20:5-22:41
MERGED from [androidx.appcompat:appcompat-resources:1.1.0] /home/akhil/.gradle/caches/transforms-2/files-2.1/28ea2af70cbd26f7bd8acff636c2c94a/AndroidManifest.xml:20:5-22:41
MERGED from [androidx.appcompat:appcompat-resources:1.1.0] /home/akhil/.gradle/caches/transforms-2/files-2.1/28ea2af70cbd26f7bd8acff636c2c94a/AndroidManifest.xml:20:5-22:41
MERGED from [androidx.drawerlayout:drawerlayout:1.0.0] /home/akhil/.gradle/caches/transforms-2/files-2.1/a6bf2e305f33d321c5d593b58a4e8b59/AndroidManifest.xml:20:5-44
MERGED from [androidx.drawerlayout:drawerlayout:1.0.0] /home/akhil/.gradle/caches/transforms-2/files-2.1/a6bf2e305f33d321c5d593b58a4e8b59/AndroidManifest.xml:20:5-44
MERGED from [androidx.coordinatorlayout:coordinatorlayout:1.1.0] /home/akhil/.gradle/caches/transforms-2/files-2.1/534c8cedd147bd776e9c8bacb03c431c/AndroidManifest.xml:20:5-22:41
MERGED from [androidx.coordinatorlayout:coordinatorlayout:1.1.0] /home/akhil/.gradle/caches/transforms-2/files-2.1/534c8cedd147bd776e9c8bacb03c431c/AndroidManifest.xml:20:5-22:41
MERGED from [androidx.transition:transition:1.2.0] /home/akhil/.gradle/caches/transforms-2/files-2.1/88a8e6b203ff6f2b24f1d22ce8b12a9c/AndroidManifest.xml:20:5-22:41
MERGED from [androidx.transition:transition:1.2.0] /home/akhil/.gradle/caches/transforms-2/files-2.1/88a8e6b203ff6f2b24f1d22ce8b12a9c/AndroidManifest.xml:20:5-22:41
MERGED from [androidx.vectordrawable:vectordrawable-animated:1.1.0] /home/akhil/.gradle/caches/transforms-2/files-2.1/713bc3cba35e92bb0e13a286c8a2543d/AndroidManifest.xml:20:5-22:41
MERGED from [androidx.vectordrawable:vectordrawable-animated:1.1.0] /home/akhil/.gradle/caches/transforms-2/files-2.1/713bc3cba35e92bb0e13a286c8a2543d/AndroidManifest.xml:20:5-22:41
MERGED from [androidx.vectordrawable:vectordrawable:1.1.0] /home/akhil/.gradle/caches/transforms-2/files-2.1/4bf851f756149e23901930abbda526c6/AndroidManifest.xml:20:5-22:41
MERGED from [androidx.vectordrawable:vectordrawable:1.1.0] /home/akhil/.gradle/caches/transforms-2/files-2.1/4bf851f756149e23901930abbda526c6/AndroidManifest.xml:20:5-22:41
MERGED from [androidx.viewpager:viewpager:1.0.0] /home/akhil/.gradle/caches/transforms-2/files-2.1/2f900257992c5b969e2757a01b3b6229/AndroidManifest.xml:20:5-44
MERGED from [androidx.viewpager:viewpager:1.0.0] /home/akhil/.gradle/caches/transforms-2/files-2.1/2f900257992c5b969e2757a01b3b6229/AndroidManifest.xml:20:5-44
MERGED from [androidx.customview:customview:1.0.0] /home/akhil/.gradle/caches/transforms-2/files-2.1/9306893e34c13054fd1c0fd2b18fa67a/AndroidManifest.xml:20:5-44
MERGED from [androidx.customview:customview:1.0.0] /home/akhil/.gradle/caches/transforms-2/files-2.1/9306893e34c13054fd1c0fd2b18fa67a/AndroidManifest.xml:20:5-44
MERGED from [androidx.loader:loader:1.0.0] /home/akhil/.gradle/caches/transforms-2/files-2.1/e03bbc90c8978a4d9ada49cff6a57fd5/AndroidManifest.xml:20:5-44
MERGED from [androidx.loader:loader:1.0.0] /home/akhil/.gradle/caches/transforms-2/files-2.1/e03bbc90c8978a4d9ada49cff6a57fd5/AndroidManifest.xml:20:5-44
MERGED from [androidx.activity:activity:1.0.0] /home/akhil/.gradle/caches/transforms-2/files-2.1/e5422bd5074bab449bdd5a41dac85449/AndroidManifest.xml:20:5-22:41
MERGED from [androidx.activity:activity:1.0.0] /home/akhil/.gradle/caches/transforms-2/files-2.1/e5422bd5074bab449bdd5a41dac85449/AndroidManifest.xml:20:5-22:41
MERGED from [androidx.core:core:1.1.0] /home/akhil/.gradle/caches/transforms-2/files-2.1/5e4f5130a13b7ce1f46b2dbc280a2535/AndroidManifest.xml:20:5-22:41
MERGED from [androidx.core:core:1.1.0] /home/akhil/.gradle/caches/transforms-2/files-2.1/5e4f5130a13b7ce1f46b2dbc280a2535/AndroidManifest.xml:20:5-22:41
MERGED from [androidx.cursoradapter:cursoradapter:1.0.0] /home/akhil/.gradle/caches/transforms-2/files-2.1/2175dd6bb88dd1b5c88d243e1790621a/AndroidManifest.xml:20:5-44
MERGED from [androidx.cursoradapter:cursoradapter:1.0.0] /home/akhil/.gradle/caches/transforms-2/files-2.1/2175dd6bb88dd1b5c88d243e1790621a/AndroidManifest.xml:20:5-44
MERGED from [androidx.cardview:cardview:1.0.0] /home/akhil/.gradle/caches/transforms-2/files-2.1/2d1fd19999f9e3d7c62fb4b846537269/AndroidManifest.xml:20:5-44
MERGED from [androidx.cardview:cardview:1.0.0] /home/akhil/.gradle/caches/transforms-2/files-2.1/2d1fd19999f9e3d7c62fb4b846537269/AndroidManifest.xml:20:5-44
MERGED from [androidx.versionedparcelable:versionedparcelable:1.1.0] /home/akhil/.gradle/caches/transforms-2/files-2.1/dea0fb8d8569f1253210821076ad45f3/AndroidManifest.xml:20:5-22:41
MERGED from [androidx.versionedparcelable:versionedparcelable:1.1.0] /home/akhil/.gradle/caches/transforms-2/files-2.1/dea0fb8d8569f1253210821076ad45f3/AndroidManifest.xml:20:5-22:41
MERGED from [androidx.lifecycle:lifecycle-runtime:2.1.0] /home/akhil/.gradle/caches/transforms-2/files-2.1/1812f3223a8bd16d966310734606fa98/AndroidManifest.xml:20:5-44
MERGED from [androidx.lifecycle:lifecycle-runtime:2.1.0] /home/akhil/.gradle/caches/transforms-2/files-2.1/1812f3223a8bd16d966310734606fa98/AndroidManifest.xml:20:5-44
MERGED from [androidx.lifecycle:lifecycle-viewmodel:2.1.0] /home/akhil/.gradle/caches/transforms-2/files-2.1/150dfd4b0e085d26f57516d6b8d22cc6/AndroidManifest.xml:20:5-44
MERGED from [androidx.lifecycle:lifecycle-viewmodel:2.1.0] /home/akhil/.gradle/caches/transforms-2/files-2.1/150dfd4b0e085d26f57516d6b8d22cc6/AndroidManifest.xml:20:5-44
MERGED from [androidx.savedstate:savedstate:1.0.0] /home/akhil/.gradle/caches/transforms-2/files-2.1/1b879d2b24cb2b175c4d8768dc4a6213/AndroidManifest.xml:20:5-22:41
MERGED from [androidx.savedstate:savedstate:1.0.0] /home/akhil/.gradle/caches/transforms-2/files-2.1/1b879d2b24cb2b175c4d8768dc4a6213/AndroidManifest.xml:20:5-22:41
MERGED from [androidx.interpolator:interpolator:1.0.0] /home/akhil/.gradle/caches/transforms-2/files-2.1/0dbb074f899efe0ccdba18e84a25148e/AndroidManifest.xml:20:5-44
MERGED from [androidx.interpolator:interpolator:1.0.0] /home/akhil/.gradle/caches/transforms-2/files-2.1/0dbb074f899efe0ccdba18e84a25148e/AndroidManifest.xml:20:5-44
MERGED from [androidx.lifecycle:lifecycle-livedata:2.0.0] /home/akhil/.gradle/caches/transforms-2/files-2.1/a80824933616705ca064b0df3cd8f9ef/AndroidManifest.xml:20:5-44
MERGED from [androidx.lifecycle:lifecycle-livedata:2.0.0] /home/akhil/.gradle/caches/transforms-2/files-2.1/a80824933616705ca064b0df3cd8f9ef/AndroidManifest.xml:20:5-44
MERGED from [androidx.lifecycle:lifecycle-livedata-core:2.0.0] /home/akhil/.gradle/caches/transforms-2/files-2.1/db7401ce8becd3bdfee9310864eade00/AndroidManifest.xml:20:5-44
MERGED from [androidx.lifecycle:lifecycle-livedata-core:2.0.0] /home/akhil/.gradle/caches/transforms-2/files-2.1/db7401ce8becd3bdfee9310864eade00/AndroidManifest.xml:20:5-44
MERGED from [androidx.arch.core:core-runtime:2.0.0] /home/akhil/.gradle/caches/transforms-2/files-2.1/52ccc2800f8f581f50527be7b590acd6/AndroidManifest.xml:20:5-44
MERGED from [androidx.arch.core:core-runtime:2.0.0] /home/akhil/.gradle/caches/transforms-2/files-2.1/52ccc2800f8f581f50527be7b590acd6/AndroidManifest.xml:20:5-44
MERGED from [pl.droidsonroids:relinker:1.3.1] /home/akhil/.gradle/caches/transforms-2/files-2.1/af45ffd13078da55dd23e04435792a1a/AndroidManifest.xml:5:5-43
MERGED from [pl.droidsonroids:relinker:1.3.1] /home/akhil/.gradle/caches/transforms-2/files-2.1/af45ffd13078da55dd23e04435792a1a/AndroidManifest.xml:5:5-43
INJECTED from /home/akhil/AndroidStudioProjects/ARanyway-master/src/main/AndroidManifest.xml
INJECTED from /home/akhil/AndroidStudioProjects/ARanyway-master/src/main/AndroidManifest.xml
	android:targetSdkVersion
		INJECTED from /home/akhil/AndroidStudioProjects/ARanyway-master/src/main/AndroidManifest.xml
		ADDED from /home/akhil/AndroidStudioProjects/ARanyway-master/src/main/AndroidManifest.xml
		INJECTED from /home/akhil/AndroidStudioProjects/ARanyway-master/src/main/AndroidManifest.xml
	android:minSdkVersion
		INJECTED from /home/akhil/AndroidStudioProjects/ARanyway-master/src/main/AndroidManifest.xml
		ADDED from /home/akhil/AndroidStudioProjects/ARanyway-master/src/main/AndroidManifest.xml
		INJECTED from /home/akhil/AndroidStudioProjects/ARanyway-master/src/main/AndroidManifest.xml
uses-permission#android.permission.ACCESS_WIFI_STATE
ADDED from [com.facebook.flipper:flipper:0.48.0] /home/akhil/.gradle/caches/transforms-2/files-2.1/033ac26c4d863fba2847934f393d4642/AndroidManifest.xml:16:5-76
	android:name
		ADDED from [com.facebook.flipper:flipper:0.48.0] /home/akhil/.gradle/caches/transforms-2/files-2.1/033ac26c4d863fba2847934f393d4642/AndroidManifest.xml:16:22-73
meta-data#com.google.ar.core.min_apk_version
ADDED from [:arcore_client:] /home/akhil/.gradle/caches/transforms-2/files-2.1/a4e9d2545e17a6536a45e4871d851c29/AndroidManifest.xml:33:9-35:41
	android:value
		ADDED from [:arcore_client:] /home/akhil/.gradle/caches/transforms-2/files-2.1/a4e9d2545e17a6536a45e4871d851c29/AndroidManifest.xml:35:13-38
	android:name
		ADDED from [:arcore_client:] /home/akhil/.gradle/caches/transforms-2/files-2.1/a4e9d2545e17a6536a45e4871d851c29/AndroidManifest.xml:34:13-62
activity#com.google.ar.core.InstallActivity
ADDED from [:arcore_client:] /home/akhil/.gradle/caches/transforms-2/files-2.1/a4e9d2545e17a6536a45e4871d851c29/AndroidManifest.xml:37:9-43:80
	android:excludeFromRecents
		ADDED from [:arcore_client:] /home/akhil/.gradle/caches/transforms-2/files-2.1/a4e9d2545e17a6536a45e4871d851c29/AndroidManifest.xml:40:13-46
	android:launchMode
		ADDED from [:arcore_client:] /home/akhil/.gradle/caches/transforms-2/files-2.1/a4e9d2545e17a6536a45e4871d851c29/AndroidManifest.xml:42:13-43
	android:exported
		ADDED from [:arcore_client:] /home/akhil/.gradle/caches/transforms-2/files-2.1/a4e9d2545e17a6536a45e4871d851c29/AndroidManifest.xml:41:13-37
	android:configChanges
		ADDED from [:arcore_client:] /home/akhil/.gradle/caches/transforms-2/files-2.1/a4e9d2545e17a6536a45e4871d851c29/AndroidManifest.xml:39:13-74
	android:theme
		ADDED from [:arcore_client:] /home/akhil/.gradle/caches/transforms-2/files-2.1/a4e9d2545e17a6536a45e4871d851c29/AndroidManifest.xml:43:13-77
	android:name
		ADDED from [:arcore_client:] /home/akhil/.gradle/caches/transforms-2/files-2.1/a4e9d2545e17a6536a45e4871d851c29/AndroidManifest.xml:38:13-62
meta-data#com.google.ar.core
ADDED from [:google_ar_required:] /home/akhil/.gradle/caches/transforms-2/files-2.1/35770158665ee27dfb562011755d95fb/AndroidManifest.xml:14:9-16:40
	android:value
		ADDED from [:google_ar_required:] /home/akhil/.gradle/caches/transforms-2/files-2.1/35770158665ee27dfb562011755d95fb/AndroidManifest.xml:16:13-37
	android:name
		ADDED from [:google_ar_required:] /home/akhil/.gradle/caches/transforms-2/files-2.1/35770158665ee27dfb562011755d95fb/AndroidManifest.xml:15:13-46
